Introduction of ‘geneHapR’
…
##  Removed: 4  C12, C16, C29, C33
##  Remain:  33
## 
## hap frequences:
## H001 H002 H003 H004 H005 H006 H007 H008 H009 
##   10    8    4    4    2    2    1    1    1 
## 
## Options:
##   hapPrefix: H
##       CHROM: scaffold_1
##         POS: 4300-6856
##  hetero_remove: YES
##   NA_remove: YES
## 
## # A tibble: 37 × 11
##    Hap    `4300` `6856` `5209` `5213` `4910` `4879` `4345` `4950` `5037` Acces…¹
##    <chr>  <chr>  <chr>  <chr>  <chr>  <chr>  <chr>  <chr>  <chr>  <chr>  <chr>  
##  1 CHR    scaff… scaff… scaff… scaff… scaff… scaff… scaff… scaff… scaff… ""     
##  2 POS    4300   6856   5209   5213   4910   4879   4345   4950   5037   ""     
##  3 INFO   <NA>   <NA>   <NA>   <NA>   <NA>   <NA>   <NA>   <NA>   <NA>   ""     
##  4 ALLELE G/C    A/G    A/AC   C/G    GCCTA… T/A,G  T/A,GG T/AA,… A/AA,… ""     
##  5 H001   G      A      A      C      GCCTA  T      T      T      A      "C8"   
##  6 H001   G      A      A      C      GCCTA  T      T      T      A      "C9"   
##  7 H001   G      A      A      C      GCCTA  T      T      T      A      "C11"  
##  8 H001   G      A      A      C      GCCTA  T      T      T      A      "C14"  
##  9 H001   G      A      A      C      GCCTA  T      T      T      A      "C18"  
## 10 H001   G      A      A      C      GCCTA  T      T      T      A      "C25"  
## # … with 27 more rows, and abbreviated variable name ¹​Accession
…
